Username,Start,End,Deadline,Duration,Average2Days,Max2Days
UserA,8/1/2023 13:00,8/2/2023 1:45,8/2/2023 4:00,12:45:00 PM,12:37:30,12:37:30
UserB,8/1/2023 16:00,8/2/2023 7:35,8/2/2023 9:00,03:35:00 PM,15:40:00,17:07:30
UserC,8/1/2023 14:30,8/1/2023 20:33,8/1/2023 22:00,06:03:00 AM,06:29:00,06:29:00
UserD,8/1/2023 16:00,8/1/2023 22:52,8/2/2023 1:00,06:52:00 AM,07:37:30,08:28:30
UserE,8/1/2023 17:00,1/2/2023 23:58,8/2/2023 2:00,06:58:00 AM,07:44:00,08:37:00
UserA,8/2/2023 14:30,8/3/2023 3:00,8/3/2023 4:00,12:30:00 PM,10:55:00,12:00:00
UserB,8/2/2023 16:00,8/3/2023 7:45,8/3/2023 9:00,03:45:00 PM,17:07:30,17:07:30
UserC,8/2/2023 14:30,8/2/2023 21:25,8/2/2023 22:00,06:55:00 AM,06:27:30,12:00:00
UserD,8/2/2023 20:20,8/3/2023 4:43,8/3/2023 1:00,08:23:00 AM,08:28:30,12:00:00
UserE,8/3/2023 2:44,8/3/2023 11:14,8/3/2023 2:00,08:30:00 AM,08:37:00,12:00:00
UserA,8/3/2023 16:00,8/4/2023 1:20,8/4/2023 4:00,09:20:00 AM,12:00:00,12:00:00
UserB,8/3/2023 16:00,8/4/2023 10:30,8/4/2023 9:00,06:30:00 PM,12:00:00,12:00:00
UserC,8/4/2023 14:30,8/3/2023 20:30,8/3/2023 22:00,06:00:00 AM,12:00:00,12:00:00
UserD,8/3/2023 16:00,8/4/2023 0:34,8/4/2023 1:00,08:34:00 AM,12:00:00,12:00:00
UserE,8/3/2023 17:00,8/4/2023 1:44,8/4/2023 2:00,08:44:00 AM,12:00:00,12:00:00
UserH,8/5/2023 17:00,8/4/2023 1:44,8/4/2023 2:00,08:44:00 AM,12:00:00,12:00:00
UserG,8/6/2023 17:00,8/6/2023 20:44,8/7/2023 2:00,08:44:00 AM,12:00:00,12:00:00